…
## Convert to DataFrame  
Bitcoin USD, 5 minute data points for an entire day.  

```julia
DataFrame(get_prices("BTC-USD",range="1d",interval="5m",exchange_local_time=true))
```
```julia
147×7 DataFrame
 Row │ ticker   timestamp            open     high     low      close    vol       
     │ String   DateTime             Float64  Float64  Float64  Float64  Float64
─────┼─────────────────────────────────────────────────────────────────────────────
   1 │ BTC-USD  2024-08-08T00:00:00  55139.5  55254.3  55139.5  55254.3  7.3769e6
   2 │ BTC-USD  2024-08-08T00:05:00  55229.6  55355.9  55229.6  55355.9  0.0
   3 │ BTC-USD  2024-08-08T00:10:00  55273.2  55273.2  55121.3  55121.3  1.9198e7
   4 │ BTC-USD  2024-08-08T00:15:00  55099.8  55272.9  55099.8  55232.8  0.0
  ⋮  │    ⋮              ⋮              ⋮        ⋮        ⋮        ⋮         ⋮
 145 │ BTC-USD  2024-08-08T12:00:00  57346.1  57406.9  57346.1  57406.9  0.0
 146 │ BTC-USD  2024-08-08T12:05:00  57384.4  57384.4  57364.8  57364.8  0.0
 147 │ BTC-USD  2024-08-08T12:08:00  57330.2  57330.2  57330.2  57330.2  0.0
                                                                   140 rows omitted
```

## Sink to TimeArray  

Rolls-Royce daily stock price between 2020-01-01 and 2020-05-30

```julia
using TimeSeries
get_prices(TimeArray,"RR.L",startdt="2020-01-01",enddt="2020-05-30")
```  

```julia
103×6 TimeArray{Float64, 2, DateTime, Matrix{Float64}} 2020-01-02T08:00:00 to 2020-05-29T07:00:00
┌─────────────────────┬─────────┬─────────┬─────────┬─────────┬──────────┬───────────┐
│                     │ open    │ high    │ low     │ close   │ adjclose │ vol       │
├─────────────────────┼─────────┼─────────┼─────────┼─────────┼──────────┼───────────┤
│ 2020-01-02T08:00:00 │ 236.374 │ 238.845 │ 232.874 │ 233.766 │  233.766 │ 1.12197e7 │
│ 2020-01-03T08:00:00 │ 232.668 │ 233.629 │  229.03 │ 232.599 │  232.599 │  1.2363e7 │
│ 2020-01-06T08:00:00 │ 231.295 │ 233.766 │ 228.932 │ 232.325 │  232.325 │ 1.13855e7 │
│ 2020-01-07T08:00:00 │ 234.041 │  234.26 │ 227.658 │ 229.305 │  229.305 │ 9.56679e6 │
│          ⋮          │    ⋮    │    ⋮    │    ⋮    │    ⋮    │    ⋮     │     ⋮     │
│ 2020-05-27T07:00:00 │   110.5 │ 126.904 │  110.06 │ 118.771 │  118.771 │  7.7212e7 │
│ 2020-05-28T07:00:00 │ 109.814 │ 114.035 │ 104.049 │ 109.471 │  109.471 │ 1.33343e8 │
│ 2020-05-29T07:00:00 │ 103.294 │ 103.946 │ 93.2044 │ 93.2044 │  93.2044 │ 1.60135e8 │
└─────────────────────┴─────────┴─────────┴─────────┴─────────┴──────────┴───────────┘
                                                                       96 rows omitted
```
…
[docs-stable-img]: https://img.shields.io/badge/docs-stable-blue.svg
[docs-stable-url]: https://eohne.github.io/YFinance.jl/stable/

[docs-dev-img]: https://img.shields.io/badge/docs-dev-blue.svg
[docs-dev-url]: https://eohne.github.io/YFinance.jl/dev/

## Other Data:

### ESG
```julia
get_ESG("NFLX")["score"] |> DataFrame |> dropmissing
```
```julia
79×6 DataFrame
 Row │ symbol  timestamp            esgScore  governanceScore  environmentScore  socialScore 
     │ String  DateTime             Real      Real             Real              Real
─────┼───────────────────────────────────────────────────────────────────────────────────────
   1 │ NFLX    2014-09-01T00:00:00     43               57                37           39
   2 │ NFLX    2014-10-01T00:00:00     43               57                37           39
   3 │ NFLX    2014-11-01T00:00:00     43               57                37           39
   4 │ NFLX    2014-12-01T00:00:00     43               57                37           39
  ⋮  │   ⋮              ⋮              ⋮             ⋮                ⋮               ⋮
  77 │ NFLX    2022-05-01T00:00:00     15.78             8.87              0.09         6.83
  78 │ NFLX    2022-08-01T00:00:00     16.25             9.34              0.09         6.83
  79 │ NFLX    2023-09-01T00:00:00     16.41             9.01              0.09         7.31
                                                                              72 rows omitted
```
…
### Get Income Statement:
```julia
is=get_Fundamental("AMD", "income_statement","annual",today()-Year(1) , today()) |> DataFrame 
stack(is, Not(:timestamp))
```  
```julia
49×3 DataFrame
 Row │ timestamp            variable                           value       
     │ DateTime             String                             Any
─────┼─────────────────────────────────────────────────────────────────────
   1 │ 2023-12-31T00:00:00  InterestExpenseNonOperating        106000000
   2 │ 2023-12-31T00:00:00  CostOfRevenue                      12220000000
   3 │ 2023-12-31T00:00:00  TotalRevenue                       22680000000
   4 │ 2023-12-31T00:00:00  EarningsFromEquityInterestNetOfT…  16000000
  ⋮  │          ⋮                           ⋮                       ⋮
  47 │ 2023-12-31T00:00:00  NormalizedIncome                   854000000
  48 │ 2023-12-31T00:00:00  EBIT                               598000000
  49 │ 2023-12-31T00:00:00  TotalUnusualItems                  0
                                                            42 rows omitted
```
…
```julia
op = get_Options("AMD")
```  
```julia
OrderedCollections.OrderedDict{String, OrderedCollections.OrderedDict{String, Vector{Any}}} with 2 entries:
  "calls" => OrderedDict("contractSymbol"=>["AMD240809C00075000", "AMD240809C00080000", "AMD240809C00085000", "AMD240809C0…
  "puts"  => OrderedDict("contractSymbol"=>["AMD240809P00075000", "AMD240809P00080000", "AMD240809P00085000", "AMD240809P0…
```

```julia
DataFrame(op["calls"])
```
```julia
65×16 DataFrame
 Row │ contractSymbol      strike  currency  lastPrice  change  percentChange  volume  openInterest  bid  ask  contractSi ⋯
     │ Any                 Any     Any       Any        Any     Any            Any     Any           Any  Any  Any        ⋯
─────┼─────────────────────────────────────────────────────────────────────────────────────────────────────────────────────
   1 │ AMD240809C00075000  75      USD       59.65      0       0              1       26            0    0    REGULAR    ⋯
   2 │ AMD240809C00080000  80      USD       52.61      0       0              1       11            0    0    REGULAR     
   3 │ AMD240809C00085000  85      USD       49.69      0       0              2       0             0    0    REGULAR     
   4 │ AMD240809C00090000  90      USD       44.54      0       0              3       12            0    0    REGULAR     
  ⋮  │         ⋮             ⋮        ⋮          ⋮        ⋮           ⋮          ⋮          ⋮         ⋮    ⋮        ⋮     ⋱
  63 │ AMD240809C00285000  285     USD       0.01       0       0              15      16            0    0    REGULAR    ⋯
  64 │ AMD240809C00290000  290     USD       0.08       0       0              7       10            0    0    REGULAR     
  65 │ AMD240809C00295000  295     USD       0.01       0       0              1       19            0    0    REGULAR     
                                                                                              6 columns and 58 rows omitted
```
…
