…
prices = get_prices("AAPL")

DataFrame(prices)
```  

### Broadcasting to get one DataFrame (stacked)
```julia
tickers=["AAPL","TSLA","F"]
prices = get_prices.(tickers,startdt="2024-01-01",enddt="2024-08-01") |> (x-> DataFrame.(x)) |> (x->vcat(x...))
```  

```julia
438×8 DataFrame
 Row │ ticker  timestamp            open      high      low       close    adjclose  vol       
     │ String  DateTime             Float64   Float64   Float64   Float64  Float64   Float64
─────┼─────────────────────────────────────────────────────────────────────────────────────────
   1 │ AAPL    2024-01-02T14:30:00  186.658   187.945   183.407    185.64  185.152   8.2272e7
   2 │ AAPL    2024-01-03T14:30:00  183.736   185.392   182.948    184.25  183.766   5.8261e7
   3 │ AAPL    2024-01-04T14:30:00  181.671   182.609   180.405    181.91  181.432   7.17945e7
   4 │ AAPL    2024-01-05T14:30:00  181.512   182.28    179.697    181.18  180.704   6.21396e7
  ⋮  │   ⋮              ⋮              ⋮         ⋮         ⋮         ⋮        ⋮          ⋮
 436 │ F       2024-07-29T13:30:00   11.0085   11.0085   10.6344    11.01   10.8411  9.02616e7
 437 │ F       2024-07-30T13:30:00   10.8608   10.9396   10.6147    10.84   10.6737  6.82735e7
 438 │ F       2024-07-31T13:30:00   10.6934   10.8411   10.5556    10.82   10.654   7.43204e7
                                                                               431 rows omitted
```
…
Or in one function:
```julia
function get_adj_close_TA(tickers,startdt,enddt,interval)
    prices = get_prices.((TimeArray,),tickers,startdt=startdt,enddt=enddt,interval=interval) |> (x->hcat(x...))
    prices = prices[colnames(prices)[occursin.(r"adj",string.(colnames(prices)))]]
    TimeSeries.rename!(prices,Symbol.(tickers))
    return prices
end;

get_adj_close_TA(["AAPL","TSLA","F","AMD","NFLX","WBA"],Date(2023-01-01),Date(2024-01-01),"1d")
```  

```julia
252×6 TimeArray{Float64, 2, DateTime, Matrix{Float64}} 2021-01-04T14:30:00 to 2021-12-31T14:30:00
┌─────────────────────┬─────────┬─────────┬─────────┬────────┬────────┬─────────┐
│                     │ AAPL    │ TSLA    │ F       │ AMD    │ NFLX   │ WBA     │
├─────────────────────┼─────────┼─────────┼─────────┼────────┼────────┼─────────┤
│ 2021-01-04T14:30:00 │  126.83 │ 243.257 │ 7.03792 │   92.3 │ 522.86 │ 34.6737 │
│ 2021-01-05T14:30:00 │ 128.398 │ 245.037 │  7.1453 │  92.77 │  520.8 │ 34.4727 │
│ 2021-01-06T14:30:00 │ 124.076 │ 251.993 │ 7.30225 │  90.33 │ 500.49 │ 36.0389 │
│ 2021-01-07T14:30:00 │  128.31 │ 272.013 │ 7.48398 │  95.16 │ 508.89 │ 37.9066 │
│          ⋮          │    ⋮    │    ⋮    │    ⋮    │   ⋮    │   ⋮    │    ⋮    │
│ 2021-12-29T14:30:00 │ 176.888 │ 362.063 │  17.069 │ 148.26 │ 610.54 │ 45.4322 │
│ 2021-12-30T14:30:00 │ 175.724 │  356.78 │ 16.9943 │ 145.15 │ 612.09 │ 45.2061 │
│ 2021-12-31T14:30:00 │ 175.103 │  352.26 │ 17.2434 │  143.9 │ 602.44 │ 45.3539 │
└─────────────────────┴─────────┴─────────┴─────────┴────────┴────────┴─────────┘
                                                                 245 rows omitted
```
…
