All Functions · YFinance.jl
…
throw_error::Bool defaults to false. If set to true the function errors when the ticker is not valid. Else a warning is given and an empty dictionary is returned.

Examples

julia> get_ESG("AAPL")
Dict{String, Dict{String, Any}} with 2 entries:
"peer_score" => Dict("governanceScore"=>Union{Missing, Float64}[63.2545, 63.454…  
"score"      => Dict("governanceScore"=>Union{Missing, Real}[62, 62, 62, 62, 62… 

julia> using DataFrames
julia> get_ESG("AAPL")["score"] |> DataFrame
96×6 DataFrame
Row │ environmentScore  esgScore    governanceScore  socialScore  symbol  times ⋯
    │ Real?             Real?       Real?            Real?        String  DateT ⋯
────┼────────────────────────────────────────────────────────────────────────────
  1 │            74          61               62           45     AAPL    2014- ⋯
  2 │            74          60               62           45     AAPL    2014-  
 ⋮  │        ⋮              ⋮              ⋮              ⋮         ⋮           ⋱
 95 │       missing     missing          missing      missing     AAPL    2022-  
 96 │             0.65       16.68             9.18         6.86  AAPL    2022-  
                                                        1 column and 92 rows omitted
…
throw_error::Bool defaults to false. If set to true the function errors when the ticker is not valid. Else a warning is given and an empty dictionary is returned.

Examples

julia> get_Options("AAPL")
Dict{String, Dict{String, Vector{Any}}} with 2 entries:
"calls" => Dict("percentChange"=>[ -2.90804  …   0], "expiration"=>[DateTime("2022-12-09T00:…  
"puts"  => Dict("percentChange"=>[0,  …   0], "expiration"=>[DateTime("2022-12-09T00:00:00"), DateTime("20…

julia> using DataFrames
julia> get_Options("AAPL")["calls"] |> DataFrame
65×16 DataFrame
Row │ ask    bid    change     contractSize  contractSymbol       currency  exp ⋯
    │ Any    Any    Any        Any           Any                  Any       Any ⋯
────┼────────────────────────────────────────────────────────────────────────────
  1 │ 94.3   94.1   0          REGULAR       AAPL221209C00050000  USD       202 ⋯
  2 │ 84.3   84.15  0          REGULAR       AAPL221209C00060000  USD       202  
 ⋮  │   ⋮      ⋮        ⋮           ⋮                 ⋮              ⋮          ⋱  
 64 │ 0.01   0      0          REGULAR       AAPL221209C00240000  USD       202  
 65 │ 0      0      0          REGULAR       AAPL221209C00250000  USD       202  
                                                    10 columns and 61 rows omitted

julia> using DataFrames
julia> data  = get_Options("AAPL")
julia> vcat( [DataFrame(i) for i in values(data)]...)
124×16 DataFrame
Row │ ask    bid    change     contractSize  contractSymbol       cur ⋯
    │ Any    Any    Any        Any           Any                  Any ⋯
────┼──────────────────────────────────────────────────────────────────
  1 │ 94.3   94.1   0          REGULAR       AAPL221209C00050000  USD ⋯
  2 │ 84.55  84.35  0          REGULAR       AAPL221209C00060000  USD  
 ⋮  │   ⋮      ⋮        ⋮           ⋮                 ⋮               ⋱ 
123 │ 75.85  75.15  0          REGULAR       AAPL221209P00220000  USD  
124 │ 85.85  85.15  0          REGULAR       AAPL221209P00230000  USD  
                                        11 columns and 120 rows omitted
…
julia> get_insider_transactions("AAPL")
Dict{String, Vector} with 7 entries:
  "shares"          => Union{Missing, Int64}[20200, 176299, 8053, 13136, 16…
  "filerRelation"   => Union{Missing, String}["Officer", "Chief Financial O…
  "transactionText" => Union{Missing, String}["Sale at price 148.72 per sha…
  "filerName"       => ["KONDO CHRISTOPHER", "MAESTRI LUCA", "O'BRIEN DEIRD…
  "ownership"       => Union{Missing, String}["D", "D", "D", "D", "D", "D",…
  "date"            => Union{Missing, DateTime}[DateTime("2022-11-22T00:00:…
  "value"           => Union{Missing, Int64}[3004144, 27493275, 1147150, mi…

julia> using DataFrames
julia> get_insider_transactions("AAPL") |> DataFrame
75×7 DataFrame
 Row │ date                 filerName          filerRelation            ⋯
     │ DateTime?            String             String?                  ⋯
─────┼───────────────────────────────────────────────────────────────────
   1 │ 2022-11-22T00:00:00  KONDO CHRISTOPHER  Officer                  ⋯
   2 │ 2022-10-28T00:00:00  MAESTRI LUCA       Chief Financial Officer   
   3 │ 2022-10-17T00:00:00  O'BRIEN DEIRDRE    Officer
  ⋮  │          ⋮                   ⋮                     ⋮             ⋱
  73 │ 2021-02-01T00:00:00  LOZANO MONICA C.   Director
  74 │ 2021-02-01T00:00:00  GORE ALBERT A JR   Director                 ⋯
  75 │ 2021-02-01T00:00:00  ADAMS KATHERINE L  General Counsel
                                            4 columns and 69 rows omitted
…
julia> get_institutional_ownership("AAPL")
Dict{String, Vector} with 6 entries:
  "organization" => ["Vanguard Group, Inc. (The)", "Blackrock Inc.", "Be…
  "pctChange"    => Union{Missing, Float64}[-0.0039, -0.0082, 0.0, -0.01…
  "pctHeld"      => Union{Missing, Float64}[0.08, 0.0641, 0.0562, 0.0372…
  "position"     => Union{Missing, Int64}[1272378901, 1020245185, 894802…
  "value"        => Union{Missing, Int64}[180881389225, 145038059235, 12…
  "reportDate"   => Union{Missing, DateTime}[DateTime("2022-09-30T00:00:…

julia> using DataFrames
julia> get_institutional_ownership("AAPL") |> DataFrame
10×6 DataFrame
 Row │ organization                   pctChange  pctHeld   position     ⋯
     │ String                         Float64?   Float64?  Int64?       ⋯
─────┼───────────────────────────────────────────────────────────────────
   1 │ Vanguard Group, Inc. (The)       -0.0039    0.08    1272378901   ⋯
   2 │ Blackrock Inc.                   -0.0082    0.0641  1020245185    
   3 │ Berkshire Hathaway, Inc           0.0       0.0562   894802319    
  ⋮  │               ⋮                    ⋮         ⋮          ⋮        ⋱
   8 │ Morgan Stanley                    0.0015    0.0115   182728771    
   9 │ Northern Trust Corporation       -0.0208    0.0111   176084862   ⋯
  10 │ Bank of America Corporation      -0.0461    0.0089   142260591    
                                             2 columns and 4 rows omitted
…
julia> get_upgrade_downgrade_history("AAPL")
Dict{String, Vector} with 5 entries:
  "firm"      => ["UBS", "Morgan Stanley", "B of A Securities", "Barclay…
  "action"    => Union{Missing, String}["main", "main", "main", "main", …
  "fromGrade" => Union{Missing, String}["", "", "", "", "", "", "", "", …
  "date"      => Union{Missing, DateTime}[DateTime("2022-11-08T12:17:03"…
  "toGrade"   => Union{Missing, String}["Buy", "Overweight", "Neutral", …
  
julia> using DataFrames
julia> get_upgrade_downgrade_history("AAPL") |> DataFrame
871×5 DataFrame
 Row │ action   date                 firm               fromGrade  toGr ⋯
     │ String?  DateTime?            String             String?    Stri ⋯
─────┼───────────────────────────────────────────────────────────────────
   1 │ main     2022-11-08T12:17:03  UBS                           Buy  ⋯
   2 │ main     2022-11-08T12:14:23  Morgan Stanley                Over  
   3 │ main     2022-11-07T13:08:30  B of A Securities             Neut  
  ⋮  │    ⋮              ⋮                   ⋮              ⋮           ⋱
 870 │ main     2012-03-08T07:33:00  FBN Securities                Outp  
 871 │ main     2012-02-09T08:17:00  Canaccord Genuity             Buy  ⋯
                                             1 column and 866 rows omitted
…
