QuoteSummary · YFinance.jl
…
julia> get_insider_transactions("AAPL")
OrderedDict{String, Vector} with 7 entries:
  "filerName"       => ["KONDO CHRISTOPHER", "MAESTRI LUCA", "O'BRIEN DEIRDRE", "KONDO CH…  
  "filerRelation"   => Union{Missing, String}["Officer", "Chief Financial Officer", "Offi…  
  "transactionText" => Union{Missing, String}["Sale at price 148.72 per share.", "Sale at…  
  "date"            => Union{Missing, DateTime}[DateTime("2022-11-22T00:00:00"), DateTime…  
  "ownership"       => Union{Missing, String}["D", "D", "D", "D", "D", "D", "D", "D", "I"…  
  "shares"          => Union{Missing, Int64}[20200, 176299, 8053, 13136, 16612, 181139, 1…  
  "value"           => Union{Missing, Int64}[3004144, 27493275, 1147150, missing, missing…

julia> using DataFrames
julia> get_insider_transactions("AAPL") |> DataFrame
75×7 DataFrame
 Row │ filerName           filerRelation            transactionText                    d ⋯
     │ String              String?                  String?                            D ⋯
─────┼────────────────────────────────────────────────────────────────────────────────────
   1 │ KONDO CHRISTOPHER   Officer                  Sale at price 148.72 per share.    2 ⋯
   2 │ MAESTRI LUCA        Chief Financial Officer  Sale at price 154.70 - 157.20 pe…  2  
   3 │ O'BRIEN DEIRDRE     Officer                  Sale at price 142.45 per share.    2  
   4 │ KONDO CHRISTOPHER   Officer                                                     2  
   5 │ O'BRIEN DEIRDRE     Officer                                                     2 ⋯   
   6 │ ADAMS KATHERINE L   General Counsel          Sale at price 138.44 - 142.93 pe…  2  
   7 │ O'BRIEN DEIRDRE     Officer                  Sale at price 141.09 - 142.83 pe…  2  
  ⋮  │         ⋮                      ⋮                             ⋮                    ⋱
  70 │ WAGNER SUSAN L      Director                                                    2  
  71 │ JUNG ANDREA         Director                                                    2 ⋯
  72 │ BELL JAMES A        Director                                                    2  
  73 │ LOZANO MONICA C.    Director                                                    2  
  74 │ GORE ALBERT A JR    Director                                                    2  
  75 │ ADAMS KATHERINE L   General Counsel          Sale at price 131.79 - 134.56 pe…  2 ⋯
                                                             4 columns and 62 rows omitted
…
julia> get_upgrade_downgrade_history("AAPL")
OrderedDict{String, Vector} with 5 entries:
  "firm"      => ["JP Morgan", "UBS", "Morgan Stanley", "B of A Securities", "Barclays", …  
  "date"      => Union{Missing, DateTime}[DateTime("2022-12-20T11:47:33"), DateTime("2022…  
  "toGrade"   => Union{Missing, String}["Overweight", "Buy", "Overweight", "Neutral", "Eq…  
  "fromGrade" => Union{Missing, String}["", "", "", "", "", "", "", "", "", ""  …  "", ""…  
  "action"    => Union{Missing, String}["main", "main", "main", "main", "main", "main", "…
  
julia> using DataFrames
julia> get_upgrade_downgrade_history("AAPL") |> DataFrame
872×5 DataFrame
 Row │ firm               date                 toGrade       fromGrade  action  
     │ String             DateTime?            String?       String?    String? 
─────┼──────────────────────────────────────────────────────────────────────────
   1 │ JP Morgan          2022-12-20T11:47:33  Overweight               main
   2 │ UBS                2022-11-08T12:17:03  Buy                      main
   3 │ Morgan Stanley     2022-11-08T12:14:23  Overweight               main
   4 │ B of A Securities  2022-11-07T13:08:30  Neutral                  main
   5 │ Barclays           2022-11-07T12:39:27  Equal-Weight             main
   6 │ Wedbush            2022-10-28T13:19:17  Outperform               main
   7 │ Credit Suisse      2022-10-28T11:59:30  Outperform               main
  ⋮  │         ⋮                   ⋮                ⋮            ⋮         ⋮
 867 │ Oxen Group         2012-03-14T15:25:00  Buy                      init
 868 │ Canaccord Genuity  2012-03-14T08:21:00  Buy                      main
 869 │ Morgan Stanley     2012-03-14T06:13:00  Overweight               main
 870 │ Jefferies          2012-03-13T06:08:00  Buy                      main
 871 │ FBN Securities     2012-03-08T07:33:00  Outperform               main
 872 │ Canaccord Genuity  2012-02-09T08:17:00  Buy                      main
                                                                859 rows omitted
…
