Home · YFinance.jl
…
source
YFinance.get_Options — Function
get_Options(symbol::String)
Retrievs options data from Yahoo Finance stored in a Dictionary with two items. One contains Call options the other Put options. These subitems are dictionaries themselves. The call and put options Dictionaries can readily be transformed to a DataFrame.
Arguments
smybol::String is a ticker (e.g. AAPL for Apple Computers, or ^GSPC for the S&P500)  
Examples

julia> get_Options("AAPL")
Dict{String, Dict{String, Vector{Any}}} with 2 entries:
"calls" => Dict("percentChange"=>[ -2.90804  …   0], "expiration"=>[DateTime("2022-12-09T00:…  
"puts"  => Dict("percentChange"=>[0,  …   0], "expiration"=>[DateTime("2022-12-09T00:00:00"), DateTime("20…

julia> get_Options("AAPL")["calls"] |> DataFrame
65×16 DataFrame
Row │ ask    bid    change     contractSize  contractSymbol       currency  exp ⋯
    │ Any    Any    Any        Any           Any                  Any       Any ⋯
────┼────────────────────────────────────────────────────────────────────────────
  1 │ 94.3   94.1   0          REGULAR       AAPL221209C00050000  USD       202 ⋯
  2 │ 84.3   84.15  0          REGULAR       AAPL221209C00060000  USD       202  
 ⋮  │   ⋮      ⋮        ⋮           ⋮                 ⋮              ⋮          ⋱  
 64 │ 0.01   0      0          REGULAR       AAPL221209C00240000  USD       202  
 65 │ 0      0      0          REGULAR       AAPL221209C00250000  USD       202  
                                                   10 columns and 61 rows omitted

julia> data  = get_Options("AAPL")
julia> vcat( [DataFrame(i) for i in values(data)]...)
124×16 DataFrame
Row │ ask    bid    change     contractSize  contractSymbol       cur ⋯
    │ Any    Any    Any        Any           Any                  Any ⋯
────┼──────────────────────────────────────────────────────────────────
  1 │ 94.3   94.1   0          REGULAR       AAPL221209C00050000  USD ⋯
  2 │ 84.55  84.35  0          REGULAR       AAPL221209C00060000  USD  
 ⋮  │   ⋮      ⋮        ⋮           ⋮                 ⋮               ⋱ 
123 │ 75.85  75.15  0          REGULAR       AAPL221209P00220000  USD  
124 │ 85.85  85.15  0          REGULAR       AAPL221209P00230000  USD  
                                        11 columns and 120 rows omitted
source
YFinance.get_ESG — Function
get_ESG(symbol::String)
Retrievs ESG Scores from Yahoo Finance stored in a Dictionary with two items. One, score, contains the companies ESG scores and individal Overall, Environment, Social and  Goverance Scores as well as a timestamp of type DateTime. The other,  peer_score, contains the peer group's scores. The subdictionaries can be transformed to DataFrames
Arguments
smybol::String is a ticker (e.g. AAPL for Apple Computers, or ^GSPC for the S&P500)  
Examples

julia> get_ESG("AAPL")
Dict{String, Dict{String, Any}} with 2 entries:
"peer_score" => Dict("governanceScore"=>Union{Missing, Float64}[63.2545, 63.454…  
"score"      => Dict("governanceScore"=>Union{Missing, Real}[62, 62, 62, 62, 62… 
   
julia> get_ESG("AAPL")["score"] |> DataFrame
96×6 DataFrame
Row │ environmentScore  esgScore    governanceScore  socialScore  symbol  times ⋯
    │ Real?             Real?       Real?            Real?        String  DateT ⋯
────┼────────────────────────────────────────────────────────────────────────────
  1 │            74          61               62           45     AAPL    2014- ⋯
  2 │            74          60               62           45     AAPL    2014-  
 ⋮  │        ⋮              ⋮              ⋮              ⋮         ⋮           ⋱
 95 │       missing     missing          missing      missing     AAPL    2022-  
 96 │             0.65       16.68             9.18         6.86  AAPL    2022-  
                                                     1 column and 92 rows omitted
…
